<?xml version="1.0" encoding="utf-8"?>
<!-- Generator: Adobe Illustrator 24.0.1, SVG Export Plug-In . SVG Version: 6.00 Build 0)  -->
<svg version="1.1" id="Layer_1" xmlns="http://www.w3.org/2000/svg" xmlns:xlink="http://www.w3.org/1999/xlink" x="0px" y="0px"
	 viewBox="0 0 245.8 245.8" style="enable-background:new 0 0 245.8 245.8;" xml:space="preserve">
<style type="text/css">
	.st0{fill:none;stroke:#000000;stroke-dasharray:0.97,1.97;}
	.st1{fill:#009640;}
	.st2{fill:none;}
</style>
<g id="Layer_1-2">
	<g id="Vorlage">
		<g id="Segmente">
			<polygon class="st0" points="82.8,222.7 25.1,165.2 123,124.6 			"/>
			<polygon class="st0" points="221.1,165.1 163.8,222.5 122.9,124.4 			"/>
			<polygon class="st0" points="24.8,83.9 82,26.4 123,124.5 			"/>
			<polygon class="st0" points="163,26.5 220.7,84 122.8,124.6 			"/>
			<polygon class="st0" points="81.8,26.4 163,26.5 122.8,124.6 			"/>
			<polygon class="st0" points="25.1,165.2 24.8,83.9 123,124.6 			"/>
			<polygon class="st0" points="220.6,83.9 221,165.1 122.7,124.5 			"/>
			<polygon class="st0" points="163.8,222.5 82.6,222.4 122.8,124.4 			"/>
		</g>
		<g id="Druckbereich">
			<polygon class="st1" points="66.5,151.1 35.1,169.7 75.5,210.8 95,179.8 			"/>
			<polygon class="st1" points="150.1,181.2 168.6,212.5 210.2,171.3 178.7,152.4 			"/>
			<polygon class="st1" points="95.2,69.3 77.1,37.9 34.9,78.1 66.3,97.5 			"/>
			<polygon class="st1" points="178.7,97.8 209.9,79 169,37.5 150.3,69 			"/>
			<polygon class="st1" points="143.9,65.5 153.1,30.4 94.6,29.9 103.5,65.5 			"/>
			<polygon class="st1" points="64.4,104.6 29.6,94.9 27.5,153 63.3,145.1 			"/>
			<polygon class="st1" points="181.4,145.3 216.5,154.5 217.1,96.3 181.7,105 			"/>
			<polygon class="st1" points="102.2,183 92.9,218.4 151.2,219.2 142.6,183.4 			"/>
		</g>
	</g>
</g>
<rect class="st2" width="245.8" height="245.8"/>
</svg>
